<?xml version="1.0" encoding="UTF-8" standalone="no"?>
<!-- Created with Inkscape (http://www.inkscape.org/) -->

<svg
   xmlns:dc="http://purl.org/dc/elements/1.1/"
   xmlns:cc="http://creativecommons.org/ns#"
   xmlns:rdf="http://www.w3.org/1999/02/22-rdf-syntax-ns#"
   xmlns:svg="http://www.w3.org/2000/svg"
   xmlns="http://www.w3.org/2000/svg"
   xmlns:sodipodi="http://sodipodi.sourceforge.net/DTD/sodipodi-0.dtd"
   xmlns:inkscape="http://www.inkscape.org/namespaces/inkscape"
   width="500"
   height="500"
   viewBox="0 0 132.29166 132.29167"
   version="1.1"
   id="svg3180"
   inkscape:version="0.92.4 (5da689c313, 2019-01-14)"
   sodipodi:docname="half-circle.svg">
  <defs
     id="defs3174" />
  <sodipodi:namedview
     id="base"
     pagecolor="#ffffff"
     bordercolor="#666666"
     borderopacity="1.0"
     inkscape:pageopacity="0.0"
     inkscape:pageshadow="2"
     inkscape:zoom="0.35"
     inkscape:cx="-210"
     inkscape:cy="560"
     inkscape:document-units="mm"
     inkscape:current-layer="layer1"
     showgrid="false"
     units="px"
     inkscape:window-width="1600"
     inkscape:window-height="831"
     inkscape:window-x="0"
     inkscape:window-y="32"
     inkscape:window-maximized="1" />
  <metadata
     id="metadata3177">
    <rdf:RDF>
      <cc:Work
         rdf:about="">
        <dc:format>image/svg+xml</dc:format>
        <dc:type
           rdf:resource="http://purl.org/dc/dcmitype/StillImage" />
        <dc:title></dc:title>
      </cc:Work>
    </rdf:RDF>
  </metadata>
  <g
     inkscape:label="Layer 1"
     inkscape:groupmode="layer"
     id="layer1"
     transform="translate(0,-164.70832)">
    <circle
       r="63.597664"
       cy="230.85416"
       cx="66.145836"
       id="circle2577"
       style="opacity:1;fill:none;fill-opacity:1;stroke:#ca3737;stroke-width:5.0963378;stroke-miterlimit:4;stroke-dasharray:none;stroke-opacity:1" />
    <path
       style="opacity:1;fill:#ca3737;fill-opacity:1;stroke:#ca3636;stroke-width:11.39866352;stroke-miterlimit:4;stroke-dasharray:none;stroke-opacity:1"
       id="path2575"
       sodipodi:type="arc"
       sodipodi:cx="-66.141129"
       sodipodi:cy="230.85416"
       sodipodi:rx="60.44643"
       sodipodi:ry="60.200684"
       sodipodi:start="4.7070877"
       sodipodi:end="1.5700756"
       sodipodi:open="true"
       d="m -66.461571,170.65432 a 60.44643,60.200684 0 0 1 52.554139,29.90293 60.44643,60.200684 0 0 1 0.182244,60.27999 60.44643,60.200684 0 0 1 -52.372375,30.21758"
       transform="scale(-1,1)" />
  </g>
</svg>
